[
    {
        "email" : "superadmin1@rizkiorg.id",
        "password": "superadmin1",
        "role_id": 1
    },
    {
        "email" : "admin1@rizkiorg.id",
        "password": "admin1",
        "role_id": 2
    },
    {
        "email" : "user1@rizkiorg.id",
        "password": "user1",
        "role_id": 3
    }
]